-------------------------------------------------------------------------------
Test set: com.libertymutual.jkriete.programs.example01.shapes.AppTest
-------------------------------------------------------------------------------
Tests run: 1, Failures: 0, Errors: 0, Skipped: 0, Time elapsed: 0.063 s - in com.libertymutual.jkriete.programs.example01.shapes.AppTest
